<svg xmlns="http://www.w3.org/2000/svg" width="8.438" height="13.12" viewBox="0 0 8.438 13.12">
  <defs>
    <style>
      .cls-1 {
        fill: #fff;
        fill-rule: evenodd;
      }
    </style>
  </defs>
  <path id="Forma_1_copy_3" data-name="Forma 1 copy 3" class="cls-1" d="M685.607,2745.81h0a1.389,1.389,0,0,0-.947-0.37,1.4,1.4,0,0,0-.948,2.44h0L688.2,2752l-4.494,4.12h0a1.4,1.4,0,0,0,.948,2.44,1.389,1.389,0,0,0,.947-0.37h0l5.624-5.15a1.429,1.429,0,0,0,.456-1.04,1.412,1.412,0,0,0-.456-1.04Z" transform="translate(-683.25 -2745.44)"/>
</svg>
